357113 3.9405 60.99707 318
357956 3.60734 60.75401 299
357983 3.03186 60.76778 210
357998 2.42631 60.78024 126
358010 1.82034 60.78997 124
358017 1.21376 60.79679 135
358024 0.60698 60.80087 138
358029 0 60.80223 140
358790 3.84999 60.49532 300
358824 3.2792 60.51013 244
358841 2.70795 60.52251 103
358849 2.10688 60.53352 114
358860 1.50519 60.54163 123
358870 0.90322 60.54703 121
358880 0.30113 60.54974 132
359638 3.52264 60.25204 293
359655 2.95599 60.26546 120
359666 2.38892 60.27647 99
359681 1.79203 60.28585 100
359693 1.19485 60.29255 140
359699 0.59747 60.29658 122
359701 0 60.29792 120
360466 3.76207 59.99332 300
360483 3.19992 60.00777 183
360511 2.63735 60.01983 101
360526 2.07466 60.02968 100
360533 1.48216 60.03766 100
360539 0.8894 60.04298 120
360543 0.29652 60.04564 119
361263 3.99778 59.73417 279
361282 3.4401 59.74963 246
361294 2.88195 59.76273 112
361312 2.32367 59.77362 109
361332 1.76506 59.78215 109
361342 1.1769 59.78875 101
361354 0.58854 59.79271 116
361356 0 59.79403 115
362093 3.6766 59.49107 259
362110 3.12281 59.50518 141
362126 2.56889 59.5171 119
362133 2.01459 59.52667 117
362143 1.46004 59.53391 101
362152 0.87616 59.53915 102
362162 0.29208 59.54174 108
362897 3.90955 59.23205 273
362918 3.36002 59.2472 182
362932 2.81038 59.26012 108
362945 2.26036 59.27072 126
362963 1.71003 59.279 117
362972 1.15948 59.28496 103
362982 0.57978 59.28883 122
362984 0 59.29011 119
363731 3.59366 58.98879 232
363752 3.04829 59.00266 138
363777 2.50245 59.01427 117
363788 1.95626 59.02358 115
363803 1.40983 59.03059 114
363812 0.86328 59.03534 138
363821 0.28778 59.03789 153
364544 3.82382 58.72997 256
364579 3.2826 58.74481 103
364601 2.74096 58.75737 110
364617 2.19888 58.76769 101
364636 1.65651 58.77574 103
364648 1.11401 58.78153 105
364652 0.57137 58.78504 129
364654 0 58.78631 116
365395 3.51346 58.48653 110
365426 2.97589 58.50007 92
365445 2.43795 58.51137 88
365449 1.89959 58.52043 101
365461 1.3611 58.52723 125
365465 0.82241 58.53179 144
365472 0.28364 58.5341 139
366241 3.74093 58.22784 106
366255 3.20739 58.24234 85
366270 2.67344 58.25462 69
366285 2.13916 58.26466 76
366299 1.6046 58.27247 94
366312 1.06985 58.27806 143
366322 0.53496 58.28141 142
366324 0 58.28253 137
366957 3.99373 58.00885 97
366980 3.46355 58.02441 82
366997 2.93293 58.03775 68
367012 2.40195 58.04889 65
367024 1.87061 58.05781 87
367034 1.33911 58.06451 113
367038 0.80742 58.06899 130
367044 0.27565 58.07125 136
367677 3.7166 57.80596 70
367695 3.18929 57.82037 65
367710 2.66159 57.83258 62
367742 2.13351 57.84259 72
367753 1.60516 57.8504 92
367757 1.07667 57.85599 104
367761 0.54805 57.85939 110
367766 0 57.86057 104
368398 3.96689 57.58699 66
368419 3.44258 57.60248 67
368434 2.91813 57.61575 63
368446 2.39327 57.62682 78
368466 1.86812 57.63571 85
368475 1.34275 57.64244 85
368487 0.81727 57.64695 109
368495 0.27244 57.64928 101
369123 3.69312 57.38405 65
369148 3.17162 57.39841 61
369168 2.64996 57.41053 71
369187 2.12798 57.42049 80
369202 1.60576 57.4283 88
369211 1.08334 57.43394 89
369221 0.5417 57.43743 84
369223 0 57.43859 83
369842 3.94065 57.16509 59
369861 3.42233 57.18048 61
369880 2.90365 57.19376 67
369907 2.38481 57.20478 79
369914 1.86567 57.21366 89
369923 1.34633 57.22038 90
369930 0.80789 57.22496 78
369946 0.26931 57.22727 70
370555 3.6701 56.96205 59
370582 3.15456 56.97636 59
370596 2.63865 56.98856 65
370615 2.12259 56.99848 79
370630 1.60629 57.00628 96
370637 1.07099 57.01197 83
370643 0.53556 57.01538 84
370649 0 57.01652 79
371266 3.91498 56.74314 52
371288 3.40254 56.75846 62
371303 2.88971 56.77168 66
371321 2.37655 56.78279 69
371336 1.86327 56.79164 81
371351 1.33108 56.79843 92
371359 0.79872 56.80295 107
371371 0.26627 56.80521 106
371987 3.64765 56.54007 53
372014 3.13788 56.5543 64
372034 2.62775 56.56644 67
372048 2.11732 56.57649 80
372055 1.58821 56.58435 80
372071 1.05891 56.58997 93
372078 0.52949 56.59335 97
372080 0 56.59447 76
372693 3.88988 56.32137 65
372722 3.38312 56.3366 63
372741 2.87596 56.34974 70
372765 2.3685 56.36082 78
372786 1.84258 56.36958 92
372796 1.3163 56.37629 97
372803 0.78985 56.38076 88
372812 0.26332 56.383 82
373426 3.62557 56.11841 65
373451 3.12138 56.13256 61
373461 2.61684 56.14464 68
373468 2.09394 56.15446 79
373491 1.5708 56.16207 87
373495 1.04732 56.16763 76
373511 0.52372 56.17097 87
373513 0 56.17208 90
374136 3.86534 55.89974 52
374167 3.36404 55.9149 55
374187 2.86241 55.92798 80
374201 2.3425 55.93883 77
374218 1.82232 55.9475 87
374231 1.30196 55.95398 75
374237 0.78126 55.9584 70
374243 0.26044 55.96059 76
374854 3.60402 55.69673 44
374899 3.10524 55.71083 54
374904 2.5883 55.72271 53
374928 2.07107 55.73242 80
374944 1.55361 55.73995 70
374951 1.03599 55.7453 67
374964 0.51802 55.74857 72
374966 0 55.74966 67
375588 3.84131 55.47814 31
375610 3.34538 55.49321 32
375648 2.8314 55.50606 38
375670 2.31708 55.51679 55
375679 1.80249 55.52536 64
375691 1.28772 55.53177 61
375695 0.77285 55.53606 61
375701 0.25763 55.53823 72
376320 3.58288 55.27513 27
376345 3.07181 55.28897 28
376373 2.56041 55.30068 34
376382 2.04868 55.31028 38
376394 1.53673 55.31773 49
376400 1.02467 55.32306 54
376412 0.5125 55.32626 70
376414 0 55.32733 67
377011 3.81779 55.05659 40
377033 3.3096 55.07141 28
377053 2.80104 55.08412 25
377067 2.29221 55.09471 28
377085 1.78306 55.10319 31
377094 1.2738 55.10955 54
377115 0.76438 55.11379 62
377122 0.2549 55.11591 64
377717 3.5448 54.85339 40
377749 3.03908 54.86708 26
377764 2.53306 54.87867 23
377780 2.02676 54.88815 20
377800 1.52026 54.89553 22
377809 1.01359 54.9008 54
377819 0.50682 54.90397 71
377827 0 54.90502 64
378391 3.77797 54.63421 37
378417 3.27507 54.64887 29
378458 2.77181 54.66145 18
378486 2.26827 54.67193 20
378498 1.76444 54.68032 20
378523 1.26049 54.68661 34
378537 0.75639 54.69081 66
378545 0.25224 54.69291 59
379100 3.50852 54.43021 37
379129 3.00803 54.44375 31
379143 2.50722 54.45523 20
379176 2.00611 54.46462 17
379188 1.50479 54.47193 42
379204 1.00337 54.47714 51
379216 0.50185 54.48028 60
379218 0 54.48132 60
379783 3.73896 54.21179 41
379811 3.24175 54.22562 34
379843 2.74365 54.23807 42
379856 2.24524 54.24842 30
379872 1.74659 54.25673 35
379875 1.24777 54.26298 31
379886 0.74887 54.26713 32
379904 0.24964 54.26919 48
380433 3.96698 53.99295 49
380463 3.47245 54.00771 45
380505 2.9776 54.02044 46
380522 2.48186 54.03177 55
380539 1.98587 54.04105 63
380552 1.48969 54.04829 46
380563 0.99335 54.05349 34
380571 0.4967 54.05656 50
380576 0 54.05759 29
381129 3.70073 53.78932 36
381172 3.20852 53.803 41
381199 2.71606 53.81469 51
381221 2.22269 53.82495 31
381243 1.72909 53.83317 30
381265 1.23533 53.83936 33
381268 0.74127 53.84339 33
381271 0.2471 53.84543 33
381808 3.92665 53.5705 32
381850 3.43705 53.58512 35
381863 2.9472 53.59775 33
381895 2.45707 53.60838 25
381906 1.96605 53.61757 32
381920 1.47484 53.62475 22
381930 0.98332 53.62976 18
381933 0.49171 53.63276 20
382503 3.66324 53.3668 27
382531 3.17597 53.38035 27
382555 2.6884 53.39193 30
382579 2.2006 53.40152 17
382600 1.71193 53.40966 21
382610 1.22293 53.41564 14
382616 0.73381 53.41963 15
382628 0.24463 53.42162 2
383173 3.88711 53.14807 23
383204 3.4024 53.16253 31
383230 2.91739 53.17503 30
383248 2.43211 53.18556 30
383259 1.94662 53.19411 18
383270 1.46012 53.20105 22
383281 0.97349 53.20601 14
383290 0.48677 53.20898 14
383851 3.62646 52.94411 23
383877 3.14395 52.95753 30
383909 2.66116 52.96898 31
383928 2.17814 52.97847 28
383950 1.69509 52.98617 24
383963 1.2109 52.99209 14
383972 0.72659 52.99603 1
383977 0.24223 52.99801 4
384528 3.84832 52.72527 24
384564 3.36825 52.73959 30
384580 2.88793 52.75196 31
384604 2.40736 52.76238 34
384610 1.92675 52.77101 16
385186 3.59036 52.52122 21
385225 3.11245 52.53452 30
385252 2.63432 52.54586 37
385265 2.15613 52.5554 30
385872 3.81027 52.30243 21
385885 3.3348 52.31662 22
385913 2.85904 52.3289 31
385930 2.38326 52.33935 45
385945 1.90726 52.34788 27
386507 3.55494 52.09836 21
386550 3.08157 52.11152 26
386589 2.60819 52.12283 31
386617 2.13455 52.13227 32
386624 1.66072 52.13981 20
387176 3.77295 51.87968 10
387201 3.30194 51.89373 21
387227 2.83091 51.90592 24
387250 2.35965 51.91622 36
387270 1.88814 51.92467 19
387283 1.41648 51.93123 11
387823 3.52018 51.67553 7
387847 3.05149 51.68858 21
387866 2.58254 51.69977 24
387880 2.11339 51.7091 33
387900 1.644 51.71657 15
387923 1.17454 51.72217 1
387927 0.70497 51.7259 0
388471 3.26994 51.47084 9
388498 2.8033 51.48291 22
388516 2.33644 51.49312 24
388530 1.86938 51.50147 32
388536 1.40217 51.50797 13
388556 0.93484 51.51262 13
389098 3.02313 51.2628 -2
389138 2.55853 51.27389 12
389158 2.09374 51.28313 22
389183 1.62871 51.29053 26
389761 2.31598 51.06436 11
389783 1.85319 51.07264 21
389795 1.39026 51.07909 29
390420 1.15397 50.86717 34
390428 0.69306 50.87084 4
391029 1.37861 50.65018 34
391039 0.91982 50.65478 33
391048 0.45993 50.6575 33
391050 0 50.6584 35
391676 1.1445 50.43829 39
391680 0.68676 50.44185 35
391693 0.22893 50.44365 57
392280 1.36713 50.22137 14
392287 0.9115 50.2258 25
392291 0.45579 50.22845 37
392293 0 50.22934 51
392917 1.1342 50.00931 16
392924 0.68056 50.01284 26
392935 0.22688 50.0146 31
393545 0 49.8003 28
394787 0 49.3709 4
355771 348.206 60.80263 1002
355812 348.776 60.85095 794
355846 349.348 60.89684 396
355905 349.921 60.94024 914
355943 350.496 60.98119 567
356569 348.03 60.53108 460
356626 348.595 60.58015 1210
356679 349.162 60.62683 308
356733 349.73 60.67097 86
356768 350.3 60.71275 621
356795 350.872 60.7521 116
356867 351.445 60.78901 269
356905 352.019 60.82351 818
356938 352.594 60.85538 887
356974 353.17 60.88478 188
357008 353.747 60.91172 162
357034 354.324 60.93674 360
357058 354.902 60.95933 914
357085 355.48 60.97945 1100
357111 356.06 60.99707 1114
357442 348.417 60.30911 1292
357493 348.979 60.35656 839
357532 349.542 60.40149 506
357579 350.107 60.44403 456
357641 350.674 60.48421 367
357694 351.242 60.52198 306
357723 351.811 60.55735 798
357755 352.381 60.59029 1021
357791 352.953 60.62062 805
357830 353.525 60.6485 284
357859 354.097 60.67448 443
357889 354.67 60.69801 781
357914 355.243 60.71913 1066
357936 355.818 60.73779 996
357954 356.393 60.75401 662
357981 356.968 60.76778 494
357996 357.574 60.78024 150
358008 358.18 60.78997 125
358015 358.786 60.79679 93
358022 359.393 60.80087 104
358266 348.242 60.03785 1209
358308 348.799 60.08605 1242
358361 349.358 60.13173 1156
358407 349.918 60.17507 984
358448 350.479 60.21604 1090
358498 351.042 60.25465 1099
358543 351.607 60.29086 726
358590 352.172 60.32469 707
358633 352.739 60.35611 1102
358661 353.306 60.38492 949
358687 353.873 60.41183 408
358705 354.441 60.43633 928
358727 355.01 60.45841 1006
358763 355.58 60.47808 947
358788 356.15 60.49532 468
358822 356.721 60.51013 296
358839 357.292 60.52251 139
358847 357.893 60.53352 118
358858 358.495 60.54163 10
358868 359.097 60.54703 60
358878 359.699 60.54974 85
359076 348.071 59.76706 1226
359127 348.622 59.81529 1246
359183 349.176 59.86173 1190
359226 349.731 59.90584 1099
359283 350.288 59.94761 1171
359319 350.846 59.98702 1408
359363 351.406 60.02407 543
359393 351.966 60.05876 735
359437 352.528 60.09107 602
359475 353.091 60.12099 834
359496 353.653 60.14882 1202
359549 354.217 60.17426 1184
359582 354.781 60.19731 823
359601 355.346 60.21795 480
359616 355.911 60.2362 197
359636 356.477 60.25204 126
359653 357.044 60.26546 176
359664 357.611 60.27647 107
359679 358.208 60.28585 64
359697 359.403 60.29658 105
359938 348.449 59.54483 1515
359988 348.997 59.59166 1531
360030 349.547 59.63653 1401
360086 350.1 59.67908 1347
360134 350.653 59.7193 1393
360173 351.208 59.75719 1328
360230 351.764 59.79272 965
360255 352.321 59.8259 735
360278 352.879 59.85671 1060
360321 353.437 59.88524 582
360353 353.995 59.91161 895
360377 354.555 59.93561 655
360403 355.115 59.95723 225
360437 355.676 59.97647 121
360464 356.238 59.99332 121
360481 356.8 60.00777 141
360509 357.363 60.01983 88
360524 357.925 60.02968 84
360531 358.518 60.03766 87
360537 359.111 60.04298 103
360541 359.703 60.04564 122
360736 348.279 59.27415 1731
360786 348.822 59.32169 1831
360835 349.367 59.36696 1404
360894 349.914 59.41028 695
360923 350.463 59.4513 1692
360976 351.013 59.49 1392
361022 351.565 59.52638 1247
361059 352.117 59.56041 1050
361088 352.671 59.5921 1029
361128 353.224 59.62152 876
361152 353.778 59.6486 243
361188 354.333 59.67353 141
361214 354.888 59.69611 122
361236 355.445 59.71632 100
361261 356.002 59.73417 103
361280 356.56 59.74963 76
361292 357.118 59.76273 70
361310 357.676 59.77362 81
361330 358.235 59.78215 102
361340 358.823 59.78875 96
361352 359.411 59.79271 115
361519 348.112 59.00324 1772
361578 348.65 59.05147 1979
361625 349.19 59.09748 1411
361674 349.732 59.14123 593
361710 350.276 59.18303 1095
361764 350.822 59.22251 1607
361824 351.369 59.25971 1448
361844 351.917 59.29462 1287
361881 352.466 59.32717 1056
361926 353.014 59.35744 773
361961 353.564 59.38542 180
361980 354.114 59.41108 120
362002 354.665 59.4346 102
362038 355.217 59.45575 118
362069 355.77 59.47458 102
362091 356.323 59.49107 157
362108 356.877 59.50518 75
362124 357.431 59.5171 72
362131 357.985 59.52667 96
362141 358.54 59.53391 87
362150 359.124 59.53915 116
362160 359.708 59.54174 115
362367 348.481 58.78105 1802
362406 349.016 58.82776 1882
362465 349.553 58.87224 1872
362517 350.092 58.9145 1854
362553 350.633 58.95476 1706
362598 351.175 58.99275 1604
362640 351.719 59.02847 1478
362672 352.264 59.06191 1067
362738 352.808 59.09304 278
362755 353.353 59.12189 133
362770 353.899 59.14845 73
362824 354.445 59.17272 78
362859 354.993 59.1948 92
362879 355.541 59.21458 92
362895 356.09 59.23205 119
362916 356.64 59.2472 78
362930 357.19 59.26012 21
362943 357.74 59.27072 70
362961 358.29 59.279 79
362970 358.841 59.28496 109
362980 359.42 59.28883 128
363151 348.314 58.51035 1728
363206 348.845 58.55776 1849
363260 349.378 58.60297 1900
363314 349.912 58.64596 1858
363346 350.447 58.68677 1819
363406 350.985 58.72555 1574
363452 351.525 58.76208 1185
363485 352.065 58.79635 548
363516 352.604 58.82827 107
363551 353.145 58.85798 150
363592 353.687 58.88542 110
363637 354.229 58.91059 102
363673 354.772 58.93352 87
363694 355.316 58.95424 79
363710 355.861 58.97266 55
363729 356.406 58.98879 93
363750 356.952 59.00266 -15
363775 357.498 59.01427 65
363786 358.044 59.02358 78
363801 358.59 59.03059 104
363810 359.137 59.03534 125
363819 359.712 59.03789 198
363957 348.15 58.23949 1798
363997 348.677 58.28754 1874
364062 349.205 58.33345 1960
364117 349.735 58.37718 1904
364156 350.266 58.41873 1782
364212 350.798 58.45808 542
364247 351.333 58.4954 349
364284 351.869 58.53049 201
364336 352.404 58.56323 116
364376 352.941 58.59374 82
364411 353.478 58.62204 92
364443 354.016 58.6481 117
364477 354.555 58.67193 91
364501 355.094 58.69351 80
364519 355.635 58.71287 93
364542 356.176 58.72997 77
364577 356.717 58.74481 78
364599 357.259 58.75737 69
364615 357.801 58.76769 74
364634 358.343 58.77574 101
364646 358.886 58.78153 109
364650 359.429 58.78504 123
364815 348.511 58.01713 1905
364871 349.035 58.06371 2005
364905 349.561 58.10815 2017
364970 350.087 58.15042 1873
365024 350.615 58.19052 400
365067 351.144 58.22845 196
365119 351.676 58.26433 126
365154 352.207 58.29787 82
365205 352.739 58.32921 98
365241 353.272 58.35834 19
365295 354.341 58.40997 106
365336 354.876 58.43245 0
365424 357.024 58.50007 56
365443 357.562 58.51137 70
365447 358.1 58.52043 91
365459 358.639 58.52723 102
365463 359.178 58.53179 115
365470 359.716 58.5341 120
365624 348.348 57.74651 1875
365677 348.868 57.79377 2054
365731 349.389 57.83889 2102
365784 349.912 57.88187 1969
365832 350.435 57.92271 439
365873 350.96 57.96138 163
365940 351.486 57.99789 131
365995 352.013 58.03222 62
366027 352.541 58.06437 88
366095 353.6 58.1221 0
366126 354.13 58.14767 100
366160 354.662 58.17103 30
366253 356.793 58.24234 52
366268 357.327 58.25462 49
366283 357.861 58.26466 71
366293 348.146 57.51331 1838
366297 358.395 58.27247 110
366310 358.93 58.27806 98
366320 359.465 58.28141 106
366371 348.662 57.5614 931
366412 349.18 57.60738 1761
366474 349.699 57.65123 2111
366543 350.219 57.69294 986
366574 350.74 57.73251 146
366620 351.263 57.76993 100
366670 351.788 57.80526 62
366716 352.312 57.83835 86
366763 352.837 57.86927 20
366801 353.364 57.89801 2
366829 353.891 57.92457 42
366861 354.419 57.94893 59
366978 356.536 58.02441 41
366995 357.067 58.03775 52
367010 357.598 58.04889 58
367022 358.129 58.05781 96
367032 358.661 58.06451 101
367036 359.193 58.06899 104
367042 359.724 58.07125 113
367052 348.46 57.3287 2032
367114 348.974 57.37552 691
367167 349.489 57.42022 2212
367218 350.006 57.46282 1950
367262 350.524 57.50327 443
367321 351.043 57.5416 134
367361 351.564 57.57783 139
367407 352.086 57.61192 41
367503 353.131 57.67349 67
367549 353.654 57.70101 -1
367577 354.179 57.72638 28
367675 356.283 57.80596 15
367693 356.811 57.82037 57
367708 357.338 57.83258 61
367733 348.259 57.09569 2055
367740 357.866 57.84259 77
367751 358.395 57.8504 73
367755 358.923 57.85599 102
367759 359.452 57.85939 105
367800 348.77 57.14333 2201
367859 349.282 57.18886 2299
367926 349.795 57.23231 2215
367975 350.309 57.27367 1911
367999 350.825 57.31288 159
368061 351.343 57.35001 139
368110 351.861 57.38502 85
368158 352.381 57.41789 33
368195 352.9 57.44854 90
368274 353.942 57.50335 86
368421 348.061 56.86231 2232
368464 358.132 57.63571 3
368473 358.657 57.64244 70
368485 359.183 57.64695 110
368493 359.728 57.64928 101
368497 348.569 56.91082 2299
368565 349.077 56.95717 2335
368602 349.587 57.00146 2272
368659 350.098 57.04367 2056
368711 350.61 57.08379 1110
368744 351.124 57.12181 128
368802 351.64 57.15772 110
368847 352.156 57.19151 44
368889 352.673 57.22318 -37
368941 353.19 57.25259 78
368990 354.226 57.30504 0
369173 348.37 56.67788 2508
369200 358.394 57.4283 60
369209 358.917 57.43394 74
369219 359.458 57.43743 82
369240 348.875 56.72519 2428
369291 349.381 56.7703 2306
369356 349.889 56.81336 2045
369400 350.398 56.85434 1800
369452 350.909 56.89319 526
369505 351.42 56.92999 123
369544 351.933 56.96469 101
369581 352.447 56.99728 8
369621 352.962 57.02779 132
369664 353.476 57.05603 -19
369692 353.992 57.08215 -43
369853 348.173 56.44464 2603
369912 358.134 57.21366 53
369921 358.654 57.22038 71
369928 359.192 57.22496 64
369940 348.675 56.49274 2544
369944 359.731 57.22727 80
369989 349.178 56.53881 2385
370037 349.683 56.5827 1695
370108 350.188 56.62453 1717
370161 350.696 56.66424 1182
370190 351.204 56.70188 132
370241 351.714 56.73747 124
370282 352.224 56.77098 33
370330 352.736 56.80241 116
370361 353.248 56.83175 99
370421 353.76 56.85881 3
370598 348.478 56.25997 2633
370613 357.877 56.99848 35
370628 358.394 57.00628 88
370635 358.929 57.01197 50
370641 359.464 57.01538 67
370676 348.978 56.30684 2537
370737 349.479 56.35171 1847
370798 349.981 56.39438 1795
370862 350.485 56.43493 1283
370896 350.99 56.47343 201
370932 351.497 56.50988 153
370970 352.004 56.54428 88
371015 352.512 56.57662 159
371061 353.021 56.60688 50
371110 353.531 56.63506 31
371156 354.04 56.66097 -22
371274 348.283 56.02689 2707
371319 357.623 56.78279 -7
371334 358.137 56.79164 99
371349 358.669 56.79843 61
371353 348.779 56.07455 2621
371357 359.201 56.80295 67
371369 359.734 56.80521 81
371431 349.277 56.12022 2450
371482 349.776 56.16388 2077
371539 350.277 56.20526 1642
371586 350.779 56.24462 591
371623 351.282 56.28193 131
371675 351.786 56.31721 117
371723 352.291 56.35043 164
371778 352.797 56.3816 32
371824 353.303 56.4107 60
371837 353.811 56.43774 13
371876 354.318 56.46236 0
371934 348.09 55.79368 2731
372026 348.584 55.84212 2677
372046 357.883 56.57649 52
372053 358.412 56.58435 53
372069 358.941 56.58997 54
372076 359.471 56.59335 70
372106 349.078 55.88858 2509
372160 349.574 55.93305 2319
372216 350.072 55.97509 2041
372276 350.57 56.01528 1154
372329 351.07 56.05345 139
372372 351.571 56.08959 128
372414 352.073 56.1237 52
372462 352.576 56.15576 102
372492 353.079 56.18577 44
372538 353.583 56.21373 1
372568 354.088 56.23979 16
372701 348.39 55.60938 2725
372739 357.124 56.34974 -26
372763 357.632 56.36082 42
372784 358.157 56.36958 52
372788 348.882 55.65662 2585
372794 358.684 56.37629 52
372801 359.21 56.38076 83
372810 359.737 56.383 98
372837 349.374 55.70189 2442
372888 349.869 55.74474 2282
372953 350.364 55.78559 1528
373017 350.861 55.8246 156
373074 351.359 55.8616 123
373104 351.857 55.89657 164
373156 352.357 55.92953 133
373207 352.857 55.96044 75
373243 353.358 55.98931 51
373274 353.86 56.01629 15
373316 354.362 56.04123 -26
373383 348.199 55.37631 2767
373449 356.879 56.13256 -15
373453 348.687 55.42436 2633
373459 357.383 56.14464 34
373466 357.906 56.15446 52
373489 358.429 56.16207 43
373493 358.953 56.16763 57
373509 359.476 56.17097 61
373524 349.177 55.47042 2499
373587 349.668 55.51405 2341
373639 350.16 55.55571 1246
373722 350.654 55.59541 224
373769 351.148 55.63325 103
373809 351.644 55.66907 93
373862 352.14 55.70289 88
373896 352.638 55.73471 55
373949 353.136 55.76449 33
374031 354.134 55.81823 81
374066 348.01 55.14295 2817
374131 348.495 55.19175 2725
374208 348.981 55.23862 2619
374216 358.178 55.9475 50
374229 358.698 55.95398 62
374235 359.219 55.9584 33
374241 359.74 55.96059 89
374283 349.47 55.28304 2286
374354 349.959 55.3255 941
374399 350.449 55.36601 155
374445 350.941 55.40455 99
374488 351.433 55.4412 94
374554 351.927 55.47588 73
374611 352.421 55.50857 63
374678 352.916 55.53927 56
374711 353.412 55.56804 62
374738 353.908 55.5948 19
374792 354.902 55.64232 70
374806 348.305 54.95889 2799
374894 348.789 55.00652 2667
374942 358.446 55.73995 55
374949 358.964 55.7453 75
374962 359.482 55.74857 68
374976 349.274 55.05167 2176
375044 349.76 55.09493 1297
375078 350.247 55.13623 113
375159 350.736 55.17559 103
375202 351.225 55.21302 73
375254 351.715 55.24854 18
375317 352.207 55.28209 24
375365 352.699 55.31365 -44
375407 353.191 55.34327 60
375444 353.684 55.37093 100
375459 354.178 55.3966 12
375494 354.673 55.42027 22
375505 348.118 54.72573 2841
375517 355.168 55.44198 50
375580 348.598 54.77412 2734
375672 349.08 54.82003 2081
375689 358.712 55.53177 68
375693 359.227 55.53606 87
375699 359.742 55.53823 67
375723 349.563 54.86403 849
375783 350.048 54.90612 110
375820 350.533 54.94629 94
375895 351.019 54.98454 73
375961 351.506 55.02084 19
376040 352.484 55.08766 -11
376082 352.973 55.11814 1
376168 353.955 55.17322 -48
376204 354.446 55.19781 74
376230 354.939 55.22044 32
376252 348.409 54.54142 2326
376331 348.889 54.58808 1170
376392 358.463 55.31773 9
376398 358.975 55.32306 82
376406 349.369 54.63284 347
376410 359.488 55.32626 69
376455 349.85 54.6757 106
376519 350.333 54.71666 90
376603 350.816 54.7557 78
376651 351.3 54.79282 0
376883 354.222 54.97492 65
376923 348.223 54.30844 1494
376927 354.712 54.99845 60
377000 348.699 54.35583 368
377062 349.177 54.40134 289
377092 358.726 55.10955 56
377113 359.236 55.11379 64
377120 359.745 55.11591 61
377142 349.655 54.44497 117
377195 350.135 54.4867 91
377274 350.615 54.52653 78
377331 351.096 54.56446 80
377365 351.578 54.60047 2
377588 348.036 54.0736 565
377610 354.487 54.77605 81
377654 348.511 54.12389 321
377715 356.455 54.85339 7
377730 348.986 54.17015 264
377802 349.461 54.21453 121
377807 358.986 54.9008 62
377817 359.493 54.90397 65
377995 350.894 54.33638 48
378036 351.373 54.3732 1
378308 348.323 53.88949 308
378311 354.75 54.57727 111
378332 355.235 54.59869 27
378352 355.72 54.61817 47
378362 348.797 53.93865 215
378389 356.222 54.63421 19
378460 349.27 53.98379 131
378535 359.244 54.69081 53
378543 359.748 54.69291 54
378555 349.744 54.02706 49
378955 348.138 53.65479 290
378972 354.528 54.35561 7
379000 355.01 54.37792 105
379024 348.609 53.70469 226
379033 355.493 54.39831 9
379074 355.992 54.41529 22
379088 349.081 53.75275 147
379181 349.551 53.79677 51
379214 359.498 54.48028 36
379261 350.023 53.83891 1
379641 354.308 54.13353 25
379670 348.422 53.47044 191
379679 354.788 54.15675 86
379702 355.268 54.17803 -29
379730 348.891 53.51923 132
379737 355.764 54.19593 25
379781 356.261 54.21179 24
379809 356.758 54.22562 -2
379824 349.361 53.56618 109
379899 349.831 53.60907 0
379902 359.75 54.26919 34
380319 354.091 53.91105 40
380326 348.237 53.23586 184
380351 354.568 53.93514 103
380373 355.045 53.95734 48
380386 348.704 53.28538 137
380408 355.539 53.97615 38
380431 356.033 53.99295 39
380449 349.171 53.33307 121
380461 356.528 54.00771 23
380503 357.022 54.02044 1
380526 349.64 53.37896 96
380971 348.055 53.001 212
380974 353.876 53.68822 20
380999 354.35 53.71317 91
381030 348.519 53.05123 132
381033 354.825 53.73624 71
381071 355.316 53.75592 48
381091 348.983 53.09966 125
381100 355.807 53.77363 38
381127 356.299 53.78932 32
381164 349.449 53.14629 94
381170 356.791 53.803 12
381251 349.916 53.19109 63
381307 350.381 53.23182 0
381674 354.135 53.4908 42
381687 348.335 52.81681 149
381706 354.607 53.51473 73
381745 355.095 53.53531 57
381751 348.797 52.86596 128
381774 355.584 53.55389 42
381806 356.073 53.5705 32
381813 349.26 52.9133 116
381848 356.563 53.58512 19
381888 349.724 52.95886 108
381944 350.189 53.0026 83
382322 348.154 52.58212 197
382338 353.922 53.26806 0
382361 354.391 53.29284 52
382384 348.613 52.63197 134
382402 354.877 53.31429 84
382433 355.363 53.33376 10
382450 349.074 52.68003 125
382474 355.85 53.35127 14
382501 356.337 53.3668 11
382520 349.535 52.72631 107
382593 349.997 52.7708 89
382657 350.46 52.81349 5
383026 354.178 53.07056 14
383047 348.431 52.39753 167
383075 354.661 53.09288 76
383115 348.889 52.44631 121
383118 355.145 53.11324 47
383146 355.629 53.13163 0
383169 349.348 52.49331 99
383235 349.807 52.53853 79
383343 350.729 52.62376 -9
383385 351.189 52.66118 -1
383691 348.251 52.16282 353
383700 353.967 52.84791 17
383730 354.447 52.8709 57
383741 348.706 52.2123 144
383759 354.928 52.89213 87
383802 355.409 52.91141 -36
383823 349.162 52.26002 106
383860 349.619 52.30597 83
383935 350.077 52.35014 -1
384279 348.073 51.92784 665
384366 354.235 52.64872 62
384374 348.525 51.978 238
384430 354.714 52.67064 104
384460 348.979 52.02642 137
384475 355.193 52.69079 34
384499 355.672 52.709 6
384512 349.433 52.07311 4
384582 349.889 52.11801 -4
384993 348.347 51.74343 411
385010 354.026 52.42615 61
385056 354.502 52.44892 85
385068 348.797 51.79254 170
385106 354.978 52.46978 66
385155 355.455 52.48887 23
385159 349.249 51.83993 102
385191 349.702 51.88558 -183
385583 353.346 52.17774 7
385608 348.169 51.50862 920
385641 353.819 52.20323 48
385692 348.618 51.55842 214
385695 354.292 52.22683 93
385738 354.766 52.24853 66
385767 349.067 51.6065 162
385784 355.24 52.26834 29
385819 355.715 52.28634 4
385853 349.518 51.65286 77
385904 349.969 51.69751 0
386090 351.781 51.85891 -3
386139 352.234 51.89224 25
386196 352.688 51.92381 63
386252 353.143 51.95364 57
386304 353.613 51.9799 58
386333 348.44 51.32403 445
386345 354.084 52.00432 92
386383 354.555 52.02687 60
386386 348.887 51.3728 177
386415 355.027 52.04752 25
386437 349.335 51.41985 152
386499 349.783 51.4652 84
386710 351.134 51.591 -2
386761 351.586 51.62949 46
386785 352.038 51.66626 74
386835 352.49 51.69859 76
386879 352.942 51.72919 73
386932 353.41 51.75625 64
386941 348.264 51.08942 1401
386975 353.878 51.78146 103
387002 348.709 51.13882 231
387008 354.347 51.80482 79
387051 354.817 51.82632 19
387069 349.154 51.18657 164
387157 349.6 51.2326 135
387208 350.047 51.27694 100
387276 350.495 51.31958 78
387336 350.943 51.36052 90
387375 351.393 51.39975 83
387424 351.843 51.43726 85
387466 352.294 51.47305 83
387524 352.744 51.50441 79
387579 348.091 50.85454 1916
387586 353.209 51.53225 77
387623 353.675 51.55826 88
387640 348.532 50.90461 1232
387665 354.141 51.58243 95
387691 348.975 50.953 175
387694 354.608 51.60475 48
387758 349.419 50.99972 144
387767 355.543 51.64384 18
387814 349.863 51.04475 112
387864 357.417 51.69977 -12
387868 350.308 51.0881 119
387946 350.755 51.12975 111
388029 351.201 51.1697 102
388088 351.649 51.20794 99
388112 352.098 51.24447 91
388144 352.547 51.27929 87
388190 353.01 51.30792 110
388229 348.358 50.67282 1904
388232 353.473 51.33471 95
388264 353.937 51.35968 99
388278 348.799 50.72188 722
388322 354.402 51.38281 73
388359 354.867 51.40411 58
388363 349.24 50.76929 167
388405 355.332 51.42356 34
388413 349.682 50.815 130
388423 355.798 51.44117 36
388444 356.264 51.45693 17
388467 350.125 50.85904 114
388496 357.197 51.48291 -36
388526 350.569 50.90139 118
388596 351.014 50.94206 109
388631 351.459 50.98102 107
388693 351.905 51.01829 100
388734 352.352 51.05385 95
388803 352.811 51.08033 92
388816 348.186 50.44077 1961
388858 353.272 51.10792 92
388900 348.624 50.49049 1250
388915 353.733 51.13368 106
388933 354.195 51.15763 85
388941 349.063 50.53856 299
388965 354.658 51.17974 68
388987 349.503 50.58498 155
388999 355.121 51.20003 46
389024 355.584 51.21848 41
389045 349.944 50.62969 118
389056 356.048 51.23509 0
389073 356.513 51.24987 20
389084 350.385 50.67275 118
389096 356.977 51.2628 0
389163 350.827 50.71411 110
389233 351.271 50.7538 99
389269 351.714 50.79178 103
389318 352.159 50.82808 86
389399 352.615 50.85532 99
389402 348.015 50.20848 2181
389453 353.072 50.88077 97
389465 348.451 50.25884 1594
389493 353.531 50.90733 94
389508 348.888 50.30756 596
389530 353.991 50.93208 92
389568 354.452 50.955 79
389571 349.325 50.35464 168
389606 354.912 50.97612 67
389637 349.764 50.40008 137
389644 355.373 50.99539 22
389702 350.203 50.44381 115
389742 350.643 50.48586 120
389791 351.084 50.52625 100
389835 351.525 50.56498 91
389874 351.968 50.602 90
389949 352.422 50.62998 100
390034 348.28 50.02694 1577
390054 352.876 50.65619 103
390103 353.332 50.68064 96
390106 348.714 50.0763 808
390136 353.789 50.70618 91
390153 349.15 50.12403 174
390165 354.247 50.72989 83
390192 349.586 50.17013 141
390198 354.705 50.75182 66
390245 355.164 50.77195 45
390261 350.023 50.2146 118
390297 350.461 50.25733 104
390350 350.899 50.29841 97
390411 351.338 50.33784 113
390467 351.778 50.37561 110
390538 352.23 50.40433 103
390575 348.11 49.79479 1238
390598 352.683 50.43129 95
390632 348.542 49.84474 683
390661 353.135 50.45649 102
390712 348.975 49.89312 357
390716 353.589 50.47994 95
390763 354.044 50.50444 77
390777 349.409 49.93988 137
390808 354.501 50.52715 63
390845 349.844 49.98501 126
390857 354.957 50.54809 7
390893 350.28 50.02855 129
390932 350.716 50.07032 105
390948 356.787 50.61369 22
390976 357.246 50.62558 25
390983 351.153 50.11044 120
391010 358.163 50.64378 15
391034 351.591 50.14892 99
391037 359.08 50.65478 13
391046 359.54 50.6575 19
391110 352.04 50.17832 68
391178 352.49 50.20602 93
391197 348.372 49.61297 809
391237 352.941 50.23197 105
391277 348.803 49.66195 313
391305 353.392 50.25618 96
391351 349.235 49.70936 156
391379 353.844 50.27867 64
391415 354.298 50.30218 32
391418 349.667 49.75516 135
391440 354.752 50.32391 18
391458 350.101 49.79936 123
391498 350.535 49.84194 130
391558 350.969 49.88275 115
391564 356.573 50.39275 37
391582 357.03 50.40549 48
391615 357.486 50.41648 46
391619 351.405 49.92193 97
391639 357.942 50.42554 36
391663 358.399 50.43281 36
391674 358.856 50.43829 31
391678 359.313 50.44185 49
391691 359.771 50.44365 57
391712 351.852 49.95204 94
391767 352.3 49.98044 110
391774 348.203 49.38094 1012
391808 352.749 50.00713 110
391823 348.632 49.43055 362
391861 353.198 50.03209 89
391890 349.061 49.47858 170
391922 353.647 50.05534 63
391956 349.492 49.52503 133
391981 354.097 50.07685 45
392039 349.923 49.56988 130
392047 354.549 50.09937 8
392089 355.001 50.12013 30
392098 350.355 49.61313 136
392121 355.454 50.13898 60
392141 350.788 49.65477 168
392147 355.908 50.15607 52
392174 356.361 50.17142 56
392193 351.221 49.69464 102
392210 356.815 50.185 56
392223 357.269 50.19683 57
392235 357.724 50.20688 56
392254 358.178 50.21501 52
392272 351.666 49.72546 122
392278 358.633 50.22137 61
392285 359.089 50.2258 64
392289 359.544 50.22845 47
392333 348.036 49.14867 877
392346 352.112 49.75457 137
392396 348.463 49.19891 594
392407 352.558 49.78198 94
392477 353.005 49.80768 83
392480 348.89 49.24757 178
392519 353.452 49.83167 133
392524 349.318 49.29465 148
392566 353.899 49.85394 45
392578 349.747 49.34014 129
392613 354.347 49.87449 46
392655 350.177 49.38404 133
392686 354.798 49.89604 71
392712 355.248 49.91567 78
392715 350.607 49.42635 145
392745 355.7 49.93357 73
392774 351.039 49.46706 116
392780 356.151 49.94972 69
392806 356.603 49.96412 70
392835 357.055 49.97677 60
392853 351.482 49.49858 138
392858 357.507 49.98766 63
392882 357.96 49.99681 63
392901 358.412 50.00402 73
392915 358.866 50.00931 56
392922 359.319 50.01284 56
392933 359.773 50.0146 47
392943 351.925 49.5284 112
392998 352.369 49.55653 96
393035 348.72 49.01645 552
393044 352.814 49.58296 128
393085 349.146 49.06416 129
393092 353.259 49.60768 83
393136 349.573 49.1103 144
393141 353.704 49.63069 88
393184 354.15 49.652 97
393204 350 49.15486 135
393264 354.596 49.67159 91
393294 350.429 49.19783 152
393323 355.045 49.69201 78
393363 350.858 49.2392 145
393372 355.494 49.7107 81
393402 355.943 49.72764 71
393417 356.393 49.74285 70
393425 351.299 49.27123 144
393445 356.843 49.75632 67
393483 357.293 49.76805 99
393497 357.743 49.77803 31
393511 351.74 49.30176 128
393514 358.194 49.78626 56
393523 358.645 49.7924 58
393533 359.097 49.79679 48
393539 359.548 49.79942 38
393569 352.182 49.3306 112
393633 352.624 49.35774 125
393699 353.067 49.3832 113
393745 353.51 49.40696 111
393786 353.954 49.42901 105
393839 354.398 49.44936 102
393886 354.843 49.46816 97
393895 350.679 49.01106 147
393931 355.289 49.48763 90
393976 355.737 49.50538 85
393989 351.118 49.04377 154
394035 356.184 49.52139 77
394061 356.632 49.53567 94
394094 357.08 49.54821 69
394099 351.557 49.07482 139
394121 357.528 49.55902 31
394145 357.977 49.56809 26
394167 358.876 49.58014 24
394180 359.325 49.58364 40
394186 351.996 49.10436 144
394189 359.775 49.58539 25
394229 352.437 49.13223 128
394273 352.877 49.1584 128
394316 353.319 49.1829 120
394370 353.76 49.20568 114
394427 354.202 49.22679 106
394486 354.644 49.24635 102
394541 355.087 49.26422 97
394572 355.532 49.28274 87
394605 355.978 49.29955 84
394662 356.423 49.31463 80
394706 356.87 49.328 69
394719 357.316 49.33962 58
394735 357.762 49.34952 37
394758 358.209 49.35716 1
394779 359.552 49.37004 10
395014 354.008 49.00389 114
395061 354.448 49.02418 108
395109 354.889 49.04281 103
395141 355.33 49.05976 92
395189 355.773 49.07735 91
395248 356.217 49.09321 79
395288 356.661 49.10738 70
395324 357.105 49.11984 52
395348 357.549 49.13056 45
395378 357.995 49.13902 3
395398 358.44 49.14576 -24
