1 0 61
2 0.25 61
3 0.5 61
4 0.75 61
5 1 61
6 1.25 61
7 1.5 61
8 1.75 61
9 2 61
10 2.25 61
11 2.5 61
12 2.75 61
13 3 61
14 3.25 61
15 3.5 61
16 3.75 61
17 4 61
18 0 60.75
19 0.25 60.75
20 0.5 60.75
21 0.75 60.75
22 1 60.75
23 1.25 60.75
24 1.5 60.75
25 1.75 60.75
26 2 60.75
27 2.25 60.75
28 2.5 60.75
29 2.75 60.75
30 3 60.75
31 3.25 60.75
32 3.5 60.75
33 3.75 60.75
34 4 60.75
35 0 60.5
36 0.25 60.5
37 0.5 60.5
38 0.75 60.5
39 1 60.5
40 1.25 60.5
41 1.5 60.5
42 1.75 60.5
43 2 60.5
44 2.25 60.5
45 2.5 60.5
46 2.75 60.5
47 3 60.5
48 3.25 60.5
49 3.5 60.5
50 3.75 60.5
51 4 60.5
52 0 60.25
53 0.25 60.25
54 0.5 60.25
55 0.75 60.25
56 1 60.25
57 1.25 60.25
58 1.5 60.25
59 1.75 60.25
60 2 60.25
61 2.25 60.25
62 2.5 60.25
63 2.75 60.25
64 3 60.25
65 3.25 60.25
66 3.5 60.25
67 3.75 60.25
68 4 60.25
69 0 60
70 0.25 60
71 0.5 60
72 0.75 60
73 1 60
74 1.25 60
75 1.5 60
76 1.75 60
77 2 60
78 2.25 60
79 2.5 60
80 2.75 60
81 3 60
82 3.25 60
83 3.5 60
84 3.75 60
85 4 60
86 0 59.75
87 0.25 59.75
88 0.5 59.75
89 0.75 59.75
90 1 59.75
91 1.25 59.75
92 1.5 59.75
93 1.75 59.75
94 2 59.75
95 2.25 59.75
96 2.5 59.75
97 2.75 59.75
98 3 59.75
99 3.25 59.75
100 3.5 59.75
101 3.75 59.75
102 4 59.75
103 0 59.5
104 0.25 59.5
105 0.5 59.5
106 0.75 59.5
107 1 59.5
108 1.25 59.5
109 1.5 59.5
110 1.75 59.5
111 2 59.5
112 2.25 59.5
113 2.5 59.5
114 2.75 59.5
115 3 59.5
116 3.25 59.5
117 3.5 59.5
118 3.75 59.5
119 4 59.5
120 0 59.25
121 0.25 59.25
122 0.5 59.25
123 0.75 59.25
124 1 59.25
125 1.25 59.25
126 1.5 59.25
127 1.75 59.25
128 2 59.25
129 2.25 59.25
130 2.5 59.25
131 2.75 59.25
132 3 59.25
133 3.25 59.25
134 3.5 59.25
135 3.75 59.25
136 4 59.25
137 0 59
138 0.25 59
139 0.5 59
140 0.75 59
141 1 59
142 1.25 59
143 1.5 59
144 1.75 59
145 2 59
146 2.25 59
147 2.5 59
148 2.75 59
149 3 59
150 3.25 59
151 3.5 59
152 3.75 59
153 4 59
154 0 58.75
155 0.25 58.75
156 0.5 58.75
157 0.75 58.75
158 1 58.75
159 1.25 58.75
160 1.5 58.75
161 1.75 58.75
162 2 58.75
163 2.25 58.75
164 2.5 58.75
165 2.75 58.75
166 3 58.75
167 3.25 58.75
168 3.5 58.75
169 3.75 58.75
170 4 58.75
171 0 58.5
172 0.25 58.5
173 0.5 58.5
174 0.75 58.5
175 1 58.5
176 1.25 58.5
177 1.5 58.5
178 1.75 58.5
179 2 58.5
180 2.25 58.5
181 2.5 58.5
182 2.75 58.5
183 3 58.5
184 3.25 58.5
185 3.5 58.5
186 3.75 58.5
187 4 58.5
188 0 58.25
189 0.25 58.25
190 0.5 58.25
191 0.75 58.25
192 1 58.25
193 1.25 58.25
194 1.5 58.25
195 1.75 58.25
196 2 58.25
197 2.25 58.25
198 2.5 58.25
199 2.75 58.25
200 3 58.25
201 3.25 58.25
202 3.5 58.25
203 3.75 58.25
204 4 58.25
205 0 58
206 0.25 58
207 0.5 58
208 0.75 58
209 1 58
210 1.25 58
211 1.5 58
212 1.75 58
213 2 58
214 2.25 58
215 2.5 58
216 2.75 58
217 3 58
218 3.25 58
219 3.5 58
220 3.75 58
221 4 58
222 0 57.75
223 0.25 57.75
224 0.5 57.75
225 0.75 57.75
226 1 57.75
227 1.25 57.75
228 1.5 57.75
229 1.75 57.75
230 2 57.75
231 2.25 57.75
232 2.5 57.75
233 2.75 57.75
234 3 57.75
235 3.25 57.75
236 3.5 57.75
237 3.75 57.75
238 4 57.75
239 0 57.5
240 0.25 57.5
241 0.5 57.5
242 0.75 57.5
243 1 57.5
244 1.25 57.5
245 1.5 57.5
246 1.75 57.5
247 2 57.5
248 2.25 57.5
249 2.5 57.5
250 2.75 57.5
251 3 57.5
252 3.25 57.5
253 3.5 57.5
254 3.75 57.5
255 4 57.5
256 0 57.25
257 0.25 57.25
258 0.5 57.25
259 0.75 57.25
260 1 57.25
261 1.25 57.25
262 1.5 57.25
263 1.75 57.25
264 2 57.25
265 2.25 57.25
266 2.5 57.25
267 2.75 57.25
268 3 57.25
269 3.25 57.25
270 3.5 57.25
271 3.75 57.25
272 4 57.25
273 0 57
274 0.25 57
275 0.5 57
276 0.75 57
277 1 57
278 1.25 57
279 1.5 57
280 1.75 57
281 2 57
282 2.25 57
283 2.5 57
284 2.75 57
285 3 57
286 3.25 57
287 3.5 57
288 3.75 57
289 4 57
290 0 56.75
291 0.25 56.75
292 0.5 56.75
293 0.75 56.75
294 1 56.75
295 1.25 56.75
296 1.5 56.75
297 1.75 56.75
298 2 56.75
299 2.25 56.75
300 2.5 56.75
301 2.75 56.75
302 3 56.75
303 3.25 56.75
304 3.5 56.75
305 3.75 56.75
306 4 56.75
307 0 56.5
308 0.25 56.5
309 0.5 56.5
310 0.75 56.5
311 1 56.5
312 1.25 56.5
313 1.5 56.5
314 1.75 56.5
315 2 56.5
316 2.25 56.5
317 2.5 56.5
318 2.75 56.5
319 3 56.5
320 3.25 56.5
321 3.5 56.5
322 3.75 56.5
323 4 56.5
324 0 56.25
325 0.25 56.25
326 0.5 56.25
327 0.75 56.25
328 1 56.25
329 1.25 56.25
330 1.5 56.25
331 1.75 56.25
332 2 56.25
333 2.25 56.25
334 2.5 56.25
335 2.75 56.25
336 3 56.25
337 3.25 56.25
338 3.5 56.25
339 3.75 56.25
340 4 56.25
341 0 56
342 0.25 56
343 0.5 56
344 0.75 56
345 1 56
346 1.25 56
347 1.5 56
348 1.75 56
349 2 56
350 2.25 56
351 2.5 56
352 2.75 56
353 3 56
354 3.25 56
355 3.5 56
356 3.75 56
357 4 56
358 0 55.75
359 0.25 55.75
360 0.5 55.75
361 0.75 55.75
362 1 55.75
363 1.25 55.75
364 1.5 55.75
365 1.75 55.75
366 2 55.75
367 2.25 55.75
368 2.5 55.75
369 2.75 55.75
370 3 55.75
371 3.25 55.75
372 3.5 55.75
373 3.75 55.75
374 4 55.75
375 0 55.5
376 0.25 55.5
377 0.5 55.5
378 0.75 55.5
379 1 55.5
380 1.25 55.5
381 1.5 55.5
382 1.75 55.5
383 2 55.5
384 2.25 55.5
385 2.5 55.5
386 2.75 55.5
387 3 55.5
388 3.25 55.5
389 3.5 55.5
390 3.75 55.5
391 4 55.5
392 0 55.25
393 0.25 55.25
394 0.5 55.25
395 0.75 55.25
396 1 55.25
397 1.25 55.25
398 1.5 55.25
399 1.75 55.25
400 2 55.25
401 2.25 55.25
402 2.5 55.25
403 2.75 55.25
404 3 55.25
405 3.25 55.25
406 3.5 55.25
407 3.75 55.25
408 4 55.25
409 0 55
410 0.25 55
411 0.5 55
412 0.75 55
413 1 55
414 1.25 55
415 1.5 55
416 1.75 55
417 2 55
418 2.25 55
419 2.5 55
420 2.75 55
421 3 55
422 3.25 55
423 3.5 55
424 3.75 55
425 4 55
426 0 54.75
427 0.25 54.75
428 0.5 54.75
429 0.75 54.75
430 1 54.75
431 1.25 54.75
432 1.5 54.75
433 1.75 54.75
434 2 54.75
435 2.25 54.75
436 2.5 54.75
437 2.75 54.75
438 3 54.75
439 3.25 54.75
440 3.5 54.75
441 3.75 54.75
442 4 54.75
443 0 54.5
444 0.25 54.5
445 0.5 54.5
446 0.75 54.5
447 1 54.5
448 1.25 54.5
449 1.5 54.5
450 1.75 54.5
451 2 54.5
452 2.25 54.5
453 2.5 54.5
454 2.75 54.5
455 3 54.5
456 3.25 54.5
457 3.5 54.5
458 3.75 54.5
459 4 54.5
460 0 54.25
461 0.25 54.25
462 0.5 54.25
463 0.75 54.25
464 1 54.25
465 1.25 54.25
466 1.5 54.25
467 1.75 54.25
468 2 54.25
469 2.25 54.25
470 2.5 54.25
471 2.75 54.25
472 3 54.25
473 3.25 54.25
474 3.5 54.25
475 3.75 54.25
476 4 54.25
477 0 54
478 0.25 54
479 0.5 54
480 0.75 54
481 1 54
482 1.25 54
483 1.5 54
484 1.75 54
485 2 54
486 2.25 54
487 2.5 54
488 2.75 54
489 3 54
490 3.25 54
491 3.5 54
492 3.75 54
493 4 54
494 0.25 53.75
495 0.5 53.75
496 0.75 53.75
497 1 53.75
498 1.25 53.75
499 1.5 53.75
500 1.75 53.75
501 2 53.75
502 2.25 53.75
503 2.5 53.75
504 2.75 53.75
505 3 53.75
506 3.25 53.75
507 3.5 53.75
508 3.75 53.75
509 4 53.75
510 0.25 53.5
511 0.5 53.5
512 0.75 53.5
513 1 53.5
514 1.25 53.5
515 1.5 53.5
516 1.75 53.5
517 2 53.5
518 2.25 53.5
519 2.5 53.5
520 2.75 53.5
521 3 53.5
522 3.25 53.5
523 3.5 53.5
524 3.75 53.5
525 4 53.5
526 0.5 53.25
527 0.75 53.25
528 1 53.25
529 1.25 53.25
530 1.5 53.25
531 1.75 53.25
532 2 53.25
533 2.25 53.25
534 2.5 53.25
535 2.75 53.25
536 3 53.25
537 3.25 53.25
538 3.5 53.25
539 3.75 53.25
540 4 53.25
541 0.25 53
542 0.5 53
543 0.75 53
544 1 53
545 1.25 53
546 1.5 53
547 1.75 53
548 2 53
549 2.25 53
550 2.5 53
551 2.75 53
552 3 53
553 3.25 53
554 3.5 53
555 3.75 53
556 4 53
557 1.75 52.75
558 2 52.75
559 2.25 52.75
560 2.5 52.75
561 2.75 52.75
562 3 52.75
563 3.25 52.75
564 3.5 52.75
565 3.75 52.75
566 4 52.75
567 2 52.5
568 2.25 52.5
569 2.5 52.5
570 2.75 52.5
571 3 52.5
572 3.25 52.5
573 3.5 52.5
574 3.75 52.5
575 4 52.5
576 1.75 52.25
577 2 52.25
578 2.25 52.25
579 2.5 52.25
580 2.75 52.25
581 3 52.25
582 3.25 52.25
583 3.5 52.25
584 3.75 52.25
585 4 52.25
586 1.5 52
587 1.75 52
588 2 52
589 2.25 52
590 2.5 52
591 2.75 52
592 3 52
593 3.25 52
594 3.5 52
595 3.75 52
596 4 52
597 1 51.75
598 1.25 51.75
599 1.5 51.75
600 1.75 51.75
601 2 51.75
602 2.25 51.75
603 2.5 51.75
604 2.75 51.75
605 3 51.75
606 3.25 51.75
607 3.5 51.75
608 3.75 51.75
609 0.5 51.5
610 0.75 51.5
611 1 51.5
612 1.25 51.5
613 1.5 51.5
614 1.75 51.5
615 2 51.5
616 2.25 51.5
617 2.5 51.5
618 2.75 51.5
619 3 51.5
620 3.25 51.5
621 1.5 51.25
622 1.75 51.25
623 2 51.25
624 2.25 51.25
625 2.5 51.25
626 2.75 51.25
627 1 51
628 1.25 51
629 1.5 51
630 1.75 51
631 2 51
632 0 50.75
633 0.5 50.75
634 0.75 50.75
635 1 50.75
636 1.25 50.75
637 1.5 50.75
638 0 50.5
639 0.25 50.5
640 0.5 50.5
641 0.75 50.5
642 1 50.5
643 1.25 50.5
644 1.5 50.5
645 0 50.25
646 0.25 50.25
647 0.5 50.25
648 0.75 50.25
649 1 50.25
650 1.25 50.25
651 1.5 50.25
652 0 50
653 0.25 50
654 0.5 50
655 0.75 50
656 1 50
657 1.25 50
658 0 49.75
659 0.25 49.75
660 0 49.5
693 356 61
694 356.25 61
695 356.5 61
696 356.75 61
697 357 61
698 357.25 61
699 357.5 61
700 357.75 61
701 358 61
702 358.25 61
703 358.5 61
704 358.75 61
705 359 61
706 359.25 61
707 359.5 61
708 359.75 61
709 360 61
742 356 60.75
743 356.25 60.75
744 356.5 60.75
745 356.75 60.75
746 357 60.75
747 357.25 60.75
748 357.5 60.75
749 357.75 60.75
750 358 60.75
751 358.25 60.75
752 358.5 60.75
753 358.75 60.75
754 359 60.75
755 359.25 60.75
756 359.5 60.75
757 359.75 60.75
758 360 60.75
791 356 60.5
792 356.25 60.5
793 356.5 60.5
794 356.75 60.5
795 357 60.5
796 357.25 60.5
797 357.5 60.5
798 357.75 60.5
799 358 60.5
800 358.25 60.5
801 358.75 60.5
802 359 60.5
803 359.25 60.5
804 359.5 60.5
805 359.75 60.5
806 360 60.5
839 356 60.25
840 356.25 60.25
841 356.5 60.25
842 356.75 60.25
843 357 60.25
844 357.25 60.25
845 357.5 60.25
846 357.75 60.25
847 358 60.25
848 358.25 60.25
849 359 60.25
850 359.25 60.25
851 359.5 60.25
852 359.75 60.25
853 360 60.25
886 356 60
887 356.25 60
888 356.5 60
889 356.75 60
890 357 60
891 357.25 60
892 357.5 60
893 357.75 60
894 358 60
895 358.25 60
896 358.5 60
897 359 60
898 359.25 60
899 359.5 60
900 359.75 60
901 360 60
934 356 59.75
935 356.25 59.75
936 356.5 59.75
937 356.75 59.75
938 357 59.75
939 357.25 59.75
940 357.5 59.75
941 357.75 59.75
942 358 59.75
943 358.25 59.75
944 358.5 59.75
945 358.75 59.75
946 359 59.75
947 359.25 59.75
948 359.5 59.75
949 359.75 59.75
950 360 59.75
983 356 59.5
984 356.25 59.5
985 356.5 59.5
986 356.75 59.5
987 357 59.5
988 357.25 59.5
989 357.5 59.5
990 357.75 59.5
991 358 59.5
992 358.25 59.5
993 358.5 59.5
994 358.75 59.5
995 359 59.5
996 359.25 59.5
997 359.5 59.5
998 359.75 59.5
999 360 59.5
1032 356 59.25
1033 356.25 59.25
1034 356.5 59.25
1035 356.75 59.25
1036 357 59.25
1037 357.25 59.25
1038 357.5 59.25
1039 357.75 59.25
1040 358 59.25
1041 358.25 59.25
1042 358.5 59.25
1043 358.75 59.25
1044 359 59.25
1045 359.25 59.25
1046 359.5 59.25
1047 359.75 59.25
1048 360 59.25
1081 356 59
1082 356.25 59
1083 356.5 59
1084 357.25 59
1085 357.5 59
1086 357.75 59
1087 358 59
1088 358.25 59
1089 358.5 59
1090 358.75 59
1091 359 59
1092 359.25 59
1093 359.5 59
1094 359.75 59
1095 360 59
1128 356 58.75
1129 356.25 58.75
1130 356.5 58.75
1131 356.75 58.75
1132 357 58.75
1133 357.25 58.75
1134 357.5 58.75
1135 357.75 58.75
1136 358 58.75
1137 358.25 58.75
1138 358.5 58.75
1139 358.75 58.75
1140 359 58.75
1141 359.25 58.75
1142 359.5 58.75
1143 359.75 58.75
1144 360 58.75
1172 357 58.5
1173 357.25 58.5
1174 357.5 58.5
1175 357.75 58.5
1176 358 58.5
1177 358.25 58.5
1178 358.5 58.5
1179 358.75 58.5
1180 359 58.5
1181 359.25 58.5
1182 359.5 58.5
1183 359.75 58.5
1184 360 58.5
1211 356.75 58.25
1212 357 58.25
1213 357.25 58.25
1214 357.5 58.25
1215 357.75 58.25
1216 358 58.25
1217 358.25 58.25
1218 358.5 58.25
1219 358.75 58.25
1220 359 58.25
1221 359.25 58.25
1222 359.5 58.25
1223 359.75 58.25
1224 360 58.25
1249 356.25 58
1250 356.5 58
1251 356.75 58
1252 357 58
1253 357.25 58
1254 357.5 58
1255 357.75 58
1256 358 58
1257 358.25 58
1258 358.5 58
1259 358.75 58
1260 359 58
1261 359.25 58
1262 359.5 58
1263 359.75 58
1264 360 58
1290 356.25 57.75
1291 356.5 57.75
1292 356.75 57.75
1293 357 57.75
1294 357.25 57.75
1295 357.5 57.75
1296 357.75 57.75
1297 358 57.75
1298 358.25 57.75
1299 358.5 57.75
1300 358.75 57.75
1301 359 57.75
1302 359.25 57.75
1303 359.5 57.75
1304 359.75 57.75
1305 360 57.75
1329 358.25 57.5
1330 358.5 57.5
1331 358.75 57.5
1332 359 57.5
1333 359.25 57.5
1334 359.5 57.5
1335 359.75 57.5
1336 360 57.5
1359 358 57.25
1360 358.25 57.25
1361 358.5 57.25
1362 358.75 57.25
1363 359 57.25
1364 359.25 57.25
1365 359.5 57.25
1366 359.75 57.25
1367 360 57.25
1391 358 57
1392 358.25 57
1393 358.5 57
1394 358.75 57
1395 359 57
1396 359.25 57
1397 359.5 57
1398 359.75 57
1399 360 57
1424 357.75 56.75
1425 358 56.75
1426 358.25 56.75
1427 358.5 56.75
1428 358.75 56.75
1429 359 56.75
1430 359.25 56.75
1431 359.5 56.75
1432 359.75 56.75
1433 360 56.75
1460 357.5 56.5
1461 357.75 56.5
1462 358 56.5
1463 358.25 56.5
1464 358.5 56.5
1465 358.75 56.5
1466 359 56.5
1467 359.25 56.5
1468 359.5 56.5
1469 359.75 56.5
1470 360 56.5
1497 357.5 56.25
1498 357.75 56.25
1499 358 56.25
1500 358.25 56.25
1501 358.5 56.25
1502 358.75 56.25
1503 359 56.25
1504 359.25 56.25
1505 359.5 56.25
1506 359.75 56.25
1507 360 56.25
1535 356.5 56
1536 356.75 56
1537 357 56
1538 357.5 56
1539 357.75 56
1540 358 56
1541 358.25 56
1542 358.5 56
1543 358.75 56
1544 359 56
1545 359.25 56
1546 359.5 56
1547 359.75 56
1548 360 56
1576 358.25 55.75
1577 358.5 55.75
1578 358.75 55.75
1579 359 55.75
1580 359.25 55.75
1581 359.5 55.75
1582 359.75 55.75
1583 360 55.75
1613 358.5 55.5
1614 358.75 55.5
1615 359 55.5
1616 359.25 55.5
1617 359.5 55.5
1618 359.75 55.5
1619 360 55.5
1645 358.5 55.25
1646 358.75 55.25
1647 359 55.25
1648 359.25 55.25
1649 359.5 55.25
1650 359.75 55.25
1651 360 55.25
1669 358.75 55
1670 359 55
1671 359.25 55
1672 359.5 55
1673 359.75 55
1674 360 55
1694 356 54.75
1695 356.25 54.75
1696 356.5 54.75
1697 358.75 54.75
1698 359 54.75
1699 359.25 54.75
1700 359.5 54.75
1701 359.75 54.75
1702 360 54.75
1724 356 54.5
1725 356.25 54.5
1726 359.5 54.5
1727 359.75 54.5
1728 360 54.5
1742 356 54.25
1743 356.25 54.25
1744 356.5 54.25
1745 359.75 54.25
1746 360 54.25
1763 356 54
1764 356.25 54
1765 356.5 54
1766 356.75 54
1767 357 54
1768 360 54
1786 356 53.75
1787 356.25 53.75
1788 356.5 53.75
1789 356.75 53.75
1806 356 53.5
1807 356.25 53.5
1808 356.5 53.5
1809 356.75 53.5
1827 356 53.25
1970 356 51.5
1971 356.25 51.5
1972 357 51.5
1973 357.25 51.5
2006 356 51.25
2007 356.25 51.25
2008 356.5 51.25
2009 356.75 51.25
2070 358.5 50.75
2071 358.75 50.75
2072 359 50.75
2073 359.25 50.75
2074 359.5 50.75
2075 359.75 50.75
2076 360 50.75
2105 356.5 50.5
2106 356.75 50.5
2107 357 50.5
2108 357.25 50.5
2109 357.5 50.5
2110 357.75 50.5
2111 358 50.5
2112 358.25 50.5
2113 358.5 50.5
2114 358.75 50.5
2115 359 50.5
2116 359.25 50.5
2117 359.5 50.5
2118 359.75 50.5
2119 360 50.5
2150 356 50.25
2151 356.5 50.25
2152 356.75 50.25
2153 357 50.25
2154 357.25 50.25
2155 357.5 50.25
2156 357.75 50.25
2157 358 50.25
2158 358.25 50.25
2159 358.5 50.25
2160 358.75 50.25
2161 359 50.25
2162 359.25 50.25
2163 359.5 50.25
2164 359.75 50.25
2165 360 50.25
2197 356 50
2198 356.25 50
2199 356.5 50
2200 356.75 50
2201 357 50
2202 357.25 50
2203 357.5 50
2204 357.75 50
2205 358 50
2206 358.25 50
2207 358.5 50
2208 358.75 50
2209 359 50
2210 359.25 50
2211 359.5 50
2212 359.75 50
2213 360 50
2246 356 49.75
2247 356.25 49.75
2248 356.5 49.75
2249 356.75 49.75
2250 357 49.75
2251 357.25 49.75
2252 357.5 49.75
2253 357.75 49.75
2254 358 49.75
2255 358.25 49.75
2256 358.5 49.75
2257 358.75 49.75
2258 359 49.75
2259 359.25 49.75
2260 359.5 49.75
2261 359.75 49.75
2262 360 49.75
2295 356 49.5
2296 356.25 49.5
2297 356.5 49.5
2298 356.75 49.5
2299 357 49.5
2300 357.25 49.5
2301 357.5 49.5
2302 357.75 49.5
2303 358 49.5
2304 358.75 49.5
2305 359 49.5
2306 359.25 49.5
2307 359.5 49.5
2308 359.75 49.5
2309 360 49.5
2342 356 49.25
2343 356.25 49.25
2344 356.5 49.25
2345 356.75 49.25
2346 357 49.25
2347 357.25 49.25
2348 357.5 49.25
2349 358 49.25
2350 358.25 49.25
2383 356 49
2384 356.25 49
2385 356.5 49
2386 356.75 49
2387 357 49
2388 357.25 49
2389 357.5 49
2390 357.75 49
2391 358 49
2392 358.25 49
